{
  "linkPrefix": "/d/xdg",
  "items": [
    {
      "state": "status",
      "name": "Status",
      "type": "link",
      "icon": "info"
    },
    {
      "state": "basic-settings",
      "name": "Basic Settings",
      "type": "sub",
      "icon": "settings",
      "children": [{
          "state": "network-setup",
          "name": "Network Setup",
          "type": "link"
        },
        {
          "state": "role-assignment",
          "name": "Role Assignment",
          "type": "link"
        }
      ]
    },
    {
      "state": "software-update",
      "name": "Software Update",
      "type": "link",
      "icon": "refresh"
    }
  ]
}
